{
  "name": "AuthenteqFlow",
  "version": "1.72.0",
  "summary": "Authenteq Flow",
  "homepage": "http://authenteq.com",
  "description": "This is a SDK which is include Authenteq functionality",
  "license": {
    "type": "commercial",
    "text": "© 2013-2022 Authenteq. All rights reserved."
  },
  "authors": {
    "Authenteq": "info@authenteq.com"
  },
  "source": {
    "http": "https://repo.app.authenteq.com/repository/artifacts/ios/flow/1.72.0/flow-1.72.0-framework.zip"
  },
  "platforms": {
    "ios": "11.0"
  },
  "ios": {
    "vendored_frameworks": [
      "AuthenteqFlow.xcframework"
    ]
  },
  "dependencies": {
    "FaceTecSDK": [
      "= 9.4.7"
    ]
  },
  "swift_version": "5"
}