{
  "name": "AuthenteqFlowDocScanner",
  "version": "1.73.0",
  "summary": "Authenteq Flow Doc Scanner",
  "homepage": "http://authenteq.com",
  "description": "This is an SDK which include Document Scan Authenteq functionality",
  "license": {
    "type": "commercial",
    "text": "© 2013-2022 Authenteq. All rights reserved."
  },
  "authors": {
    "Authenteq": "info@authenteq.com"
  },
  "source": {
    "http": "https://repo.app.authenteq.com/repository/artifacts/ios/flow-docscanner/1.73.0/flow-docscanner-1.73.0-framework.zip"
  },
  "platforms": {
    "ios": "11.0"
  },
  "ios": {
    "vendored_frameworks": [
      "AuthenteqFlowDocScanner.xcframework"
    ]
  },
  "dependencies": {
    "DocumentReader": [
      "= 6.3.2494"
    ],
    "DocumentReaderFull": [
      "= 6.3.6210"
    ]
  },
  "swift_version": "5"
}