{
  "name": "AuthenteqFlow",
  "version": "1.63.0",
  "summary": "Authenteq Flow",
  "homepage": "http://authenteq.com",
  "description": "This is a SDK which is include Authenteq functionality",
  "license": {
    "type": "commercial",
    "text": "© 2013-2019 Authenteq. All rights reserved."
  },
  "authors": {
    "Authenteq": "info@authenteq.com",
    "Vitaliy Gozhenko": "vitaliy@authenteq.com"
  },
  "source": {
    "http": "https://repo.app.authenteq.com/repository/artifacts/ios/flow/1.63.0/flow-1.63.0-framework.zip"
  },
  "platforms": {
    "ios": "10.0.0"
  },
  "swift_versions": "5",
  "ios": {
    "vendored_frameworks": [
      "AuthenteqFlow.framework"
    ]
  },
  "dependencies": {
    "ZoomAuthentication": [
      "= 8.1.0"
    ]
  },
  "swift_version": "5"
}